{
    "name": "Boids.DOTS",
    "references": [
        "Unity.Entities",
        "Unity.Entities.Hybrid",
        "Unity.Collections",
        "Unity.Transforms",
        "Unity.Transforms.Hybrid",
        "Unity.Rendering.Hybrid",
        "Unity.Burst",
        "Unity.Jobs",
        "Unity.Mathematics",
        "Unity.Mathematics.Extensions",
        "Unity.Mathematics.Extensions.Hybrid",
        "Boids.Classic"
    ],
    "includePlatforms": [],
    "excludePlatforms": [],
    "allowUnsafeCode": true,
    "overrideReferences": false,
    "precompiledReferences": [],
    "autoReferenced": true,
    "defineConstraints": [],
    "versionDefines": [],
    "noEngineReferences": false
}